• Bioc2020RCWL
…
atls <- cwlUpdate()  ## sync the tools/pipelines
atls

## class: BiocFileCache
## bfccache: /github/home/.cache/Rcwl
## bfccount: 129
## For more information see: bfcinfo() or bfcquery()

the bfcinfo() function returns a BiocFileCache tibble containing all information about each available tool or pipeline. Currently we have integrated 103 command line tools and 26 pipelines.

bfcinfo(atls)

## # A tibble: 129 x 13
##    rid   rname create_time access_time rpath rtype fpath last_modified_t… etag 
##    <chr> <chr> <chr>       <chr>       <chr> <chr> <chr>            <dbl> <chr>
##  1 BFC1  pl_a… 2020-07-23… 2020-07-23… /git… local /git…               NA <NA> 
##  2 BFC2  pl_A… 2020-07-23… 2020-07-23… /git… local /git…               NA <NA> 
##  3 BFC3  pl_B… 2020-07-23… 2020-07-23… /git… local /git…               NA <NA> 
##  4 BFC4  pl_b… 2020-07-23… 2020-07-23… /git… local /git…               NA <NA> 
##  5 BFC5  pl_b… 2020-07-23… 2020-07-23… /git… local /git…               NA <NA> 
##  6 BFC6  pl_b… 2020-07-23… 2020-07-23… /git… local /git…               NA <NA> 
##  7 BFC7  pl_C… 2020-07-23… 2020-07-23… /git… local /git…               NA <NA> 
##  8 BFC8  pl_G… 2020-07-23… 2020-07-23… /git… local /git…               NA <NA> 
##  9 BFC9  pl_G… 2020-07-23… 2020-07-23… /git… local /git…               NA <NA> 
## 10 BFC10 pl_h… 2020-07-23… 2020-07-23… /git… local /git…               NA <NA> 
## # … with 119 more rows, and 4 more variables: expires <dbl>, Type <chr>,
## #   Command <chr>, Container <chr>
…
