• Bioc2020RCWL
…
Indexing recipe scripts

The cwlUpdate function updates the recipe scripts from the GitHub repository and collects meta data to a local cache internally using the BiocFileCache package. By default the local cache will be created under your home directory. Here we use temporary directory as an example.

tools <- cwlUpdate(cachePath = tempfile())
tools

## class: BiocFileCache
## bfccache: /tmp/RtmpZjf3Pi/file4cf26d2d8cb
## bfccount: 130
## For more information see: bfcinfo() or bfcquery()

bfcinfo(tools)  ## show a tibble list with all available tools. Use

## # A tibble: 130 x 13
##    rid   rname create_time access_time rpath rtype fpath last_modified_t… etag 
##    <chr> <chr> <chr>       <chr>       <chr> <chr> <chr>            <dbl> <chr>
##  1 BFC1  pl_a… 2020-10-15… 2020-10-15… /tmp… local /tmp…               NA <NA> 
##  2 BFC2  pl_A… 2020-10-15… 2020-10-15… /tmp… local /tmp…               NA <NA> 
##  3 BFC3  pl_B… 2020-10-15… 2020-10-15… /tmp… local /tmp…               NA <NA> 
##  4 BFC4  pl_b… 2020-10-15… 2020-10-15… /tmp… local /tmp…               NA <NA> 
##  5 BFC5  pl_b… 2020-10-15… 2020-10-15… /tmp… local /tmp…               NA <NA> 
##  6 BFC6  pl_b… 2020-10-15… 2020-10-15… /tmp… local /tmp…               NA <NA> 
##  7 BFC7  pl_C… 2020-10-15… 2020-10-15… /tmp… local /tmp…               NA <NA> 
##  8 BFC8  pl_G… 2020-10-15… 2020-10-15… /tmp… local /tmp…               NA <NA> 
##  9 BFC9  pl_G… 2020-10-15… 2020-10-15… /tmp… local /tmp…               NA <NA> 
## 10 BFC10 pl_h… 2020-10-15… 2020-10-15… /tmp… local /tmp…               NA <NA> 
## # … with 120 more rows, and 4 more variables: expires <dbl>, Type <chr>,
## #   Command <chr>, Container <chr>
…
